{
    "$schema": "https://json-schema.org/draft-07/schema#",
    "$id": "https://ptb.de/si#",
    "definitions": {
        "restrictedTextType": {
            "type": "object",
            "required": ["content"],
            "properties": {
                "content": {"type": "string"},
                "id": {"type": "string"}
            }
        },
        "restrictedSoftwareType": {
            "type": "object",
            "required": [
                "name",
                "release"
            ],
            "properties": {
                "name": {"$ref": "#/definitions/restrictedTextType"},
                "release": {"type": "string"},
                "id": {"type": "string"}
            }
        },
        "restrictedSoftwareListType": {
            "type": "object",
            "required": ["software"],
            "properties": {
                "software": {"$ref": "#/definitions/restrictedSoftwareType"}
            }
        },
        "restrictedIdentificationType": {
            "type": "object",
            "required": [
                "issuer",
                "value"
            ],
            "properties": {
                "issuer": {
                    "allOf": [
                        {"type": "string"},
                        {
                            "enum": [
                                "manufacturer",
                                "calibrationLaboratory",
                                "customer",
                                "owner",
                                "other"
                            ]
                        }
                    ]
                },
                "value": {"type": "string"},
                "description": {"$ref": "#/definitions/restrictedTextType"},
                "id": {"type": "string"},
                "refType": {"type": "string"}
            }
        },
        "restrictedIdentificationListType": {
            "type": "object",
            "required": ["identification"],
            "properties": {
                "identification": {
                    "type": "array",
                    "items": {"$ref": "#/definitions/restrictedIdentificationType"},
                    "minItems": 1
                }
            }
        },
        "restrictedCoreDataType": {
            "type": "object",
            "required": [
                "countryCodeISO3166_1",
                "usedLangCodeISO639_1",
                "mandatoryLangCodeISO639_1",
                "uniqueIdentifier",
                "beginPerformanceDate",
                "endPerformanceDate"
            ],
            "properties": {
                "countryCodeISO3166_1": {"type": "string"},
                "usedLangCodeISO639_1": {"type": "string"},
                "mandatoryLangCodeISO639_1": {"type": "string"},
                "uniqueIdentifier": {"type": "string"},
                "identifications": {"$ref": "#/definitions/restrictedIdentificationListType"},
                "beginPerformanceDate": {
                    "type": "string",
                    "format": "date"
                },
                "endPerformanceDate": {
                    "type": "string",
                    "format": "date"
                }
            }
        },
        "restrictedLocationType": {
            "type": "object",
            "required": ["countryCode"],
            "properties": {
                "city": {"type": "string"},
                "countryCode": {"type": "string"},
                "postCode": {"type": "string"},
                "postOfficeBox": {"type": "string"},
                "state": {"type": "string"},
                "street": {"type": "string"},
                "streetNo": {"type": "string"}
            }
        },
        "restrictedContactNotStrictType": {
            "type": "object",
            "required": ["name"],
            "properties": {
                "name": {"$ref": "#/definitions/restrictedTextType"},
                "eMail": {"type": "string"},
                "phone": {"type": "string"},
                "fax": {"type": "string"},
                "location": {"$ref": "#/definitions/restrictedLocationType"},
                "id": {"type": "string"}
            }
        },
        "restrictedItemType": {
            "type": "object",
            "required": [
                "name",
                "manufacturer",
                "identifications"
            ],
            "properties": {
                "name": {"$ref": "#/definitions/restrictedTextType"},
                "description": {"$ref": "#/definitions/restrictedTextType"},
                "manufacturer": {"$ref": "#/definitions/restrictedContactNotStrictType"},
                "model": {"type": "string"},
                "identifications": {"$ref": "#/definitions/restrictedIdentificationListType"},
                "id": {"type": "string"}
            }
        },
        "restrictedItemListType": {
            "type": "object",
            "required": ["item"],
            "properties": {
                "item": {
                    "type": "array",
                    "items": {"$ref": "#/definitions/restrictedItemType"},
                    "minItems": 1
                }
            }
        },
        "restrictedContactType": {
            "type": "object",
            "required": [
                "name",
                "eMail",
                "location"
            ],
            "properties": {
                "name": {"$ref": "#/definitions/restrictedTextType"},
                "eMail": {"type": "string"},
                "phone": {"type": "string"},
                "fax": {"type": "string"},
                "location": {"$ref": "#/definitions/restrictedLocationType"},
                "id": {"type": "string"}
            }
        },
        "restrictedCalibrationLaboratoryType": {
            "type": "object",
            "required": ["contact"],
            "properties": {
                "calibrationLaboratoryCode": {"type": "string"},
                "contact": {"$ref": "#/definitions/restrictedContactType"}
            }
        },
        "restrictedRespPersonType": {
            "type": "object",
            "required": ["person"],
            "properties": {
                "person": {"$ref": "#/definitions/restrictedContactNotStrictType"},
                "description": {"$ref": "#/definitions/restrictedTextType"},
                "role": {
                    "allOf": [
                        {"type": "string"},
                        {
                            "enum": [
                                "supervisor",
                                "technician",
                                "witness"
                            ]
                        }
                    ]
                },
                "id": {"type": "string"}
            }
        },
        "restrictedRespPersonListType": {
            "type": "object",
            "required": ["respPerson"],
            "properties": {
                "respPerson": {
                    "type": "array",
                    "items": {"$ref": "#/definitions/restrictedRespPersonType"},
                    "minItems": 1
                }
            }
        },
        "xmlType": {
            "type": "object",
            "properties": {
                "Any": {"type": "object"},
                "id": {"type": "string"}
            }
        },
        "formulaType": {
            "type": "object",
            "required": [
                "latex",
                "mathml"
            ],
            "properties": {
                "latex": {"type": "string"},
                "mathml": {"$ref": "#/definitions/xmlType"},
                "id": {"type": "string"}
            }
        },
        "expandedUncType": {
            "type": "object",
            "required": [
                "uncertainty",
                "coverageFactor",
                "coverageProbability"
            ],
            "properties": {
                "uncertainty": {"type": "number"},
                "coverageFactor": {"type": "number"},
                "coverageProbability": {"type": "number"},
                "distribution": {"type": "string"}
            }
        },
        "coverageIntervalType": {
            "type": "object",
            "required": [
                "standardUnc",
                "intervalMin",
                "intervalMax",
                "coverageProbability"
            ],
            "properties": {
                "standardUnc": {"type": "number"},
                "intervalMin": {"type": "number"},
                "intervalMax": {"type": "number"},
                "coverageProbability": {"type": "number"},
                "distribution": {"type": "string"}
            }
        },
        "realQuantityType": {
            "type": "object",
            "required": [
                "value",
                "unit",
                "expandedUnc",
                "coverageInterval"
            ],
            "properties": {
                "label": {"type": "string"},
                "value": {"type": "number"},
                "unit": {"type": "string"},
                "dateTime": {
                    "type": "string",
                    "format": "date-time"
                },
                "expandedUnc": {"$ref": "#/definitions/expandedUncType"},
                "coverageInterval": {"$ref": "#/definitions/coverageIntervalType"}
            }
        },
        "restrictedInfluenceQuantityType": {
            "type": "object",
            "required": [
                "name",
                "real"
            ],
            "properties": {
                "name": {"$ref": "#/definitions/restrictedTextType"},
                "description": {"$ref": "#/definitions/restrictedTextType"},
                "real": {"$ref": "#/definitions/realQuantityType"},
                "id": {"type": "string"},
                "refId": {"type": "string"},
                "refType": {"type": "string"}
            }
        },
        "restrictedInfluenceDataType": {
            "type": "object",
            "required": ["quantity"],
            "properties": {
                "formula": {
                    "type": "array",
                    "items": {"$ref": "#/definitions/formulaType"},
                    "minItems": 0
                },
                "quantity": {
                    "type": "array",
                    "items": {"$ref": "#/definitions/restrictedInfluenceQuantityType"},
                    "minItems": 1
                },
                "id": {"type": "string"},
                "refId": {"type": "string"},
                "refType": {"type": "string"}
            }
        },
        "restrictedStatementMetaDataType": {
            "type": "object",
            "properties": {
                "countryCodeISO3166_1": {
                    "type": "array",
                    "items": {"type": "string"},
                    "minItems": 0
                },
                "convention": {"type": "string"},
                "traceable": {"type": "boolean"},
                "norm": {"type": "string"},
                "reference": {"type": "string"},
                "declaration": {"$ref": "#/definitions/restrictedTextType"},
                "resposibleAuthority": {"$ref": "#/definitions/restrictedContactType"},
                "conformity": {"$ref": "#/definitions/stringConformityStatementStatusType"},
                "data": {"$ref": "#/definitions/restrictedInfluenceDataType"},
                "id": {"type": "string"},
                "refId": {"type": "string"},
                "refType": {"type": "string"}
            }
        },
        "restrictedStatementListType": {
            "type": "object",
            "required": ["statement"],
            "properties": {
                "statement": {
                    "type": "array",
                    "items": {"$ref": "#/definitions/restrictedStatementMetaDataType"},
                    "minItems": 1
                }
            }
        },
        "restrictedAdministrativeDataType": {
            "type": "object",
            "required": [
                "dccSoftware",
                "coreData",
                "items",
                "calibrationLaboratory",
                "respPersons",
                "customer"
            ],
            "properties": {
                "dccSoftware": {"$ref": "#/definitions/restrictedSoftwareListType"},
                "coreData": {"$ref": "#/definitions/restrictedCoreDataType"},
                "items": {"$ref": "#/definitions/restrictedItemListType"},
                "calibrationLaboratory": {"$ref": "#/definitions/restrictedCalibrationLaboratoryType"},
                "respPersons": {"$ref": "#/definitions/restrictedRespPersonListType"},
                "customer": {"$ref": "#/definitions/restrictedContactType"},
                "statements": {"$ref": "#/definitions/restrictedStatementListType"}
            }
        },
        "restrictedCertificateType": {
            "type": "object",
            "required": [
                "reference",
                "referenceID",
                "procedure",
                "value"
            ],
            "properties": {
                "reference": {"$ref": "#/definitions/restrictedTextType"},
                "referenceID": {"type": "string"},
                "procedure": {"type": "string"},
                "value": {"type": "string"},
                "id": {"type": "string"}
            }
        },
        "restrictedMeasuringEquipmentType": {
            "type": "object",
            "required": ["name"],
            "properties": {
                "name": {"$ref": "#/definitions/restrictedTextType"},
                "description": {"$ref": "#/definitions/restrictedTextType"},
                "certificate": {"$ref": "#/definitions/restrictedCertificateType"},
                "manufacturer": {"$ref": "#/definitions/restrictedContactNotStrictType"},
                "model": {"type": "string"},
                "identifications": {"$ref": "#/definitions/restrictedIdentificationListType"},
                "id": {"type": "string"}
            }
        },
        "restrictedMeasuringEquipmentListType": {
            "type": "object",
            "required": ["measuringEquipment"],
            "properties": {
                "measuringEquipment": {"$ref": "#/definitions/restrictedMeasuringEquipmentType"}
            }
        },
        "restrictedConditionType": {
            "type": "object",
            "required": [
                "name",
                "data"
            ],
            "properties": {
                "name": {"$ref": "#/definitions/restrictedTextType"},
                "description": {"$ref": "#/definitions/restrictedTextType"},
                "status": {
                    "allOf": [
                        {"type": "string"},
                        {
                            "enum": [
                                "beforeAdjustment",
                                "afterAdjustment",
                                "beforeRepair",
                                "afterRepair"
                            ]
                        }
                    ]
                },
                "data": {"$ref": "#/definitions/restrictedInfluenceDataType"},
                "id": {"type": "string"},
                "refType": {"type": "string"}
            }
        },
        "restrictedInfluenceConditionListType": {
            "type": "object",
            "required": ["influenceCondition"],
            "properties": {
                "influenceCondition": {
                    "type": "array",
                    "items": {"$ref": "#/definitions/restrictedConditionType"},
                    "minItems": 1
                }
            }
        },
        "restrictedQuantityType": {
            "type": "object",
            "required": [
                "name",
                "real"
            ],
            "properties": {
                "name": {"$ref": "#/definitions/restrictedTextType"},
                "description": {"$ref": "#/definitions/restrictedTextType"},
                "real": {"$ref": "#/definitions/realQuantityType"},
                "measuringEquipments": {"$ref": "#/definitions/restrictedMeasuringEquipmentListType"},
                "influenceConditions": {"$ref": "#/definitions/restrictedInfluenceConditionListType"},
                "id": {"type": "string"},
                "refId": {"type": "string"},
                "refType": {"type": "string"}
            }
        },
        "restrictedMeasurementMetaDataType": {
            "type": "object",
            "required": ["conformity"],
            "properties": {
                "conformity": {"$ref": "#/definitions/stringConformityStatementStatusType"},
                "id": {"type": "string"},
                "refId": {"type": "string"},
                "refType": {"type": "string"}
            }
        },
        "restrictedMeasurementMetaDataListType": {
            "type": "object",
            "required": ["metaData"],
            "properties": {
                "metaData": {"$ref": "#/definitions/restrictedMeasurementMetaDataType"}
            }
        },
        "restrictedListType": {
            "type": "object",
            "required": ["quantity"],
            "properties": {
                "dateTime": {
                    "type": "string",
                    "format": "date-time"
                },
                "quantity": {
                    "type": "array",
                    "items": {"$ref": "#/definitions/restrictedQuantityType"},
                    "minItems": 1
                },
                "measurementMetaData": {"$ref": "#/definitions/restrictedMeasurementMetaDataListType"},
                "id": {"type": "string"},
                "refId": {"type": "string"},
                "refType": {"type": "string"}
            }
        },
        "restrictedDataType": {
            "type": "object",
            "required": ["list"],
            "properties": {
                "formula": {
                    "type": "array",
                    "items": {"$ref": "#/definitions/formulaType"},
                    "minItems": 0
                },
                "list": {
                    "type": "array",
                    "items": {"$ref": "#/definitions/restrictedListType"},
                    "minItems": 1
                },
                "id": {"type": "string"},
                "refId": {"type": "string"},
                "refType": {"type": "string"}
            }
        },
        "restrictedResultType": {
            "type": "object",
            "required": [
                "name",
                "data"
            ],
            "properties": {
                "name": {"$ref": "#/definitions/restrictedTextType"},
                "description": {"$ref": "#/definitions/restrictedTextType"},
                "data": {"$ref": "#/definitions/restrictedDataType"},
                "id": {"type": "string"},
                "refId": {"type": "string"},
                "refType": {"type": "string"}
            }
        },
        "restrictedResultListType": {
            "type": "object",
            "required": ["result"],
            "properties": {
                "result": {"$ref": "#/definitions/restrictedResultType"}
            }
        },
        "restrictedMeasurementResultType": {
            "type": "object",
            "required": [
                "name",
                "results"
            ],
            "properties": {
                "name": {"$ref": "#/definitions/restrictedTextType"},
                "description": {"$ref": "#/definitions/restrictedTextType"},
                "results": {"$ref": "#/definitions/restrictedResultListType"},
                "id": {"type": "string"},
                "refId": {"type": "string"},
                "refType": {"type": "string"}
            }
        },
        "restrictedMeasurementResultListType": {
            "type": "object",
            "required": ["measurementResult"],
            "properties": {
                "measurementResult": {
                    "type": "array",
                    "items": {"$ref": "#/definitions/restrictedMeasurementResultType"},
                    "minItems": 1
                }
            }
        },
        "restrictedDigitalCalibrationCertificateType.comment": {
            "type": "object",
            "properties": {
                "Any": {
                    "type": "array",
                    "items": {"type": "object"},
                    "minItems": 0
                }
            }
        },
        "restrictedDigitalCalibrationCertificateType": {
            "type": "object",
            "required": [
                "administrativeData",
                "measurementResults",
                "schemaVersion"
            ],
            "properties": {
                "administrativeData": {"$ref": "#/definitions/restrictedAdministrativeDataType"},
                "measurementResults": {"$ref": "#/definitions/restrictedMeasurementResultListType"},
                "comment": {"$ref": "#/definitions/restrictedDigitalCalibrationCertificateType.comment"},
                "schemaVersion": {"type": "string"}
            }
        },
        "restrictedCalibrationLocationType": {
            "type": "object",
            "required": ["calibrationLocationSite"],
            "properties": {
                "calibrationLocationSite": {"$ref": "#/definitions/restrictedTextType"},
                "beginLocationCalDateTime": {
                    "type": "string",
                    "format": "date-time"
                },
                "endLocationCalDateTime": {
                    "type": "string",
                    "format": "date-time"
                },
                "location": {"$ref": "#/definitions/restrictedLocationType"},
                "id": {"type": "string"}
            }
        },
        "restrictedCalibrationLocationListType": {
            "type": "object",
            "required": ["calibrationLocation"],
            "properties": {
                "calibrationLocation": {
                    "type": "array",
                    "items": {"$ref": "#/definitions/restrictedCalibrationLocationType"},
                    "minItems": 1
                }
            }
        },
        "restrictedConditionDataType": {
            "type": "object",
            "required": ["quantity"],
            "properties": {
                "quantity": {
                    "type": "array",
                    "items": {"$ref": "#/definitions/restrictedInfluenceQuantityType"},
                    "minItems": 1
                },
                "id": {"type": "string"}
            }
        },
        "restrictedUsedMethodType": {
            "type": "object",
            "required": ["name"],
            "properties": {
                "name": {"$ref": "#/definitions/restrictedTextType"},
                "description": {"$ref": "#/definitions/restrictedTextType"},
                "norm": {"type": "string"},
                "id": {"type": "string"},
                "refType": {"type": "string"}
            }
        },
        "restrictedUsedMethodListType": {
            "type": "object",
            "required": ["usedMethod"],
            "properties": {
                "usedMethod": {
                    "type": "array",
                    "items": {"$ref": "#/definitions/restrictedUsedMethodType"},
                    "minItems": 1
                }
            }
        },
        "constantQuantityType": {
            "type": "object",
            "required": [
                "value",
                "unit"
            ],
            "properties": {
                "label": {"type": "string"},
                "value": {"type": "number"},
                "unit": {"type": "string"},
                "dateTime": {
                    "type": "string",
                    "format": "date-time"
                },
                "uncertainty": {"type": "number"},
                "distribution": {"type": "string"}
            }
        },
        "covarianceMatrixType.column.covariance": {
            "type": "object",
            "required": [
                "value",
                "unit"
            ],
            "properties": {
                "value": {"type": "number"},
                "unit": {"type": "string"}
            }
        },
        "covarianceMatrixType.column": {
            "type": "object",
            "required": ["covariance"],
            "properties": {
                "covariance": {
                    "type": "array",
                    "items": {"$ref": "#/definitions/covarianceMatrixType.column.covariance"},
                    "minItems": 1
                }
            }
        },
        "covarianceMatrixType": {
            "type": "object",
            "required": ["column"],
            "properties": {
                "column": {
                    "type": "array",
                    "items": {"$ref": "#/definitions/covarianceMatrixType.column"},
                    "minItems": 1
                }
            }
        },
        "rectangularRegionType": {
            "type": "object",
            "required": [
                "covarianceMatrix",
                "coverageFactor",
                "coverageProbability"
            ],
            "properties": {
                "covarianceMatrix": {"$ref": "#/definitions/covarianceMatrixType"},
                "coverageFactor": {"type": "number"},
                "coverageProbability": {"type": "number"},
                "distribution": {"type": "string"}
            }
        },
        "ellipsoidalRegionType": {
            "type": "object",
            "required": [
                "covarianceMatrix",
                "coverageFactor",
                "coverageProbability"
            ],
            "properties": {
                "covarianceMatrix": {"$ref": "#/definitions/covarianceMatrixType"},
                "coverageFactor": {"type": "number"},
                "coverageProbability": {"type": "number"},
                "distribution": {"type": "string"}
            }
        },
        "complexQuantityType": {
            "type": "object",
            "required": ["Content"],
            "properties": {
                "Content": {
                    "type": "array",
                    "items": {
                        "anyOf": [
                            {
                                "type": "object",
                                "properties": {
                                    "valueImag": {"type": "number"}
                                }
                            },
                            {
                                "type": "object",
                                "properties": {
                                    "valueMagnitude": {"type": "number"}
                                }
                            },
                            {
                                "type": "object",
                                "properties": {
                                    "rectangularRegion": {"$ref": "#/definitions/rectangularRegionType"}
                                }
                            },
                            {
                                "type": "object",
                                "properties": {
                                    "ellipsoidalRegion": {"$ref": "#/definitions/ellipsoidalRegionType"}
                                }
                            },
                            {
                                "type": "object",
                                "properties": {
                                    "unit": {"type": "string"}
                                }
                            },
                            {
                                "type": "object",
                                "properties": {
                                    "valueReal": {"type": "number"}
                                }
                            },
                            {
                                "type": "object",
                                "properties": {
                                    "valuePhase": {"type": "number"}
                                }
                            },
                            {
                                "type": "object",
                                "properties": {
                                    "unitPhase": {"type": "string"}
                                }
                            },
                            {
                                "type": "object",
                                "properties": {
                                    "label": {"type": "string"}
                                }
                            },
                            {
                                "type": "object",
                                "properties": {
                                    "dateTime": {
                                        "type": "string",
                                        "format": "date-time"
                                    }
                                }
                            }
                        ]
                    },
                    "maxItems": 7,
                    "minItems": 3
                }
            }
        },
        "listUnivariateUncType": {
            "type": "object",
            "required": [
                "expandedUnc",
                "coverageInterval"
            ],
            "properties": {
                "expandedUnc": {"$ref": "#/definitions/expandedUncType"},
                "coverageInterval": {"$ref": "#/definitions/coverageIntervalType"}
            }
        },
        "realInListType": {
            "type": "object",
            "required": [
                "value",
                "expandedUnc",
                "coverageInterval"
            ],
            "properties": {
                "label": {"type": "string"},
                "value": {"type": "number"},
                "unit": {"type": "string"},
                "dateTime": {
                    "type": "string",
                    "format": "date-time"
                },
                "expandedUnc": {"$ref": "#/definitions/expandedUncType"},
                "coverageInterval": {"$ref": "#/definitions/coverageIntervalType"}
            }
        },
        "realListType": {
            "type": "object",
            "required": [
                "real",
                "ellipsoidalRegion",
                "rectangularRegion"
            ],
            "properties": {
                "label": {"type": "string"},
                "dateTime": {
                    "type": "string",
                    "format": "date-time"
                },
                "listUnit": {"type": "string"},
                "listUnivariateUnc": {"$ref": "#/definitions/listUnivariateUncType"},
                "real": {
                    "type": "array",
                    "items": {"$ref": "#/definitions/realInListType"},
                    "minItems": 1
                },
                "ellipsoidalRegion": {"$ref": "#/definitions/ellipsoidalRegionType"},
                "rectangularRegion": {"$ref": "#/definitions/rectangularRegionType"}
            }
        },
        "listBivariateUncType": {
            "type": "object",
            "required": [
                "ellipsoidalRegion",
                "rectangularRegion"
            ],
            "properties": {
                "ellipsoidalRegion": {"$ref": "#/definitions/ellipsoidalRegionType"},
                "rectangularRegion": {"$ref": "#/definitions/rectangularRegionType"}
            }
        },
        "complexInListType": {
            "type": "object",
            "required": ["Content"],
            "properties": {
                "Content": {
                    "type": "array",
                    "items": {
                        "anyOf": [
                            {
                                "type": "object",
                                "properties": {
                                    "valueReal": {"type": "number"}
                                }
                            },
                            {
                                "type": "object",
                                "properties": {
                                    "ellipsoidalRegion": {"$ref": "#/definitions/ellipsoidalRegionType"}
                                }
                            },
                            {
                                "type": "object",
                                "properties": {
                                    "unit": {"type": "string"}
                                }
                            },
                            {
                                "type": "object",
                                "properties": {
                                    "valueMagnitude": {"type": "number"}
                                }
                            },
                            {
                                "type": "object",
                                "properties": {
                                    "valueImag": {"type": "number"}
                                }
                            },
                            {
                                "type": "object",
                                "properties": {
                                    "rectangularRegion": {"$ref": "#/definitions/rectangularRegionType"}
                                }
                            },
                            {
                                "type": "object",
                                "properties": {
                                    "dateTime": {
                                        "type": "string",
                                        "format": "date-time"
                                    }
                                }
                            },
                            {
                                "type": "object",
                                "properties": {
                                    "valuePhase": {"type": "number"}
                                }
                            },
                            {
                                "type": "object",
                                "properties": {
                                    "label": {"type": "string"}
                                }
                            },
                            {
                                "type": "object",
                                "properties": {
                                    "unitPhase": {"type": "string"}
                                }
                            }
                        ]
                    },
                    "maxItems": 7,
                    "minItems": 2
                }
            }
        },
        "complexListType": {
            "type": "object",
            "required": [
                "complex",
                "ellipsoidalRegion",
                "rectangularRegion"
            ],
            "properties": {
                "label": {"type": "string"},
                "dateTime": {
                    "type": "string",
                    "format": "date-time"
                },
                "listUnit": {"type": "string"},
                "listUnitPhase": {"type": "string"},
                "listBivariateUnc": {"$ref": "#/definitions/listBivariateUncType"},
                "complex": {
                    "type": "array",
                    "items": {"$ref": "#/definitions/complexInListType"},
                    "minItems": 1
                },
                "ellipsoidalRegion": {"$ref": "#/definitions/ellipsoidalRegionType"},
                "rectangularRegion": {"$ref": "#/definitions/rectangularRegionType"}
            }
        },
        "listType": {
            "type": "object",
            "required": ["realListOrcomplexListOrlist"],
            "properties": {
                "label": {"type": "string"},
                "dateTime": {
                    "type": "string",
                    "format": "date-time"
                },
                "realListOrcomplexListOrlist": {
                    "type": "array",
                    "items": {
                        "anyOf": [
                            {"$ref": "#/definitions/realListType"},
                            {"$ref": "#/definitions/complexListType"},
                            {"$ref": "#/definitions/listType"}
                        ]
                    },
                    "minItems": 1
                }
            }
        },
        "hybridType": {
            "type": "object",
            "required": [
                "real",
                "complex",
                "list",
                "realList",
                "complexList",
                "constant"
            ],
            "properties": {
                "real": {
                    "type": "array",
                    "items": {"$ref": "#/definitions/realQuantityType"},
                    "minItems": 1
                },
                "complex": {
                    "type": "array",
                    "items": {"$ref": "#/definitions/complexQuantityType"},
                    "minItems": 1
                },
                "list": {
                    "type": "array",
                    "items": {"$ref": "#/definitions/listType"},
                    "minItems": 1
                },
                "realList": {
                    "type": "array",
                    "items": {"$ref": "#/definitions/realListType"},
                    "minItems": 1
                },
                "complexList": {
                    "type": "array",
                    "items": {"$ref": "#/definitions/complexListType"},
                    "minItems": 1
                },
                "constant": {
                    "type": "array",
                    "items": {"$ref": "#/definitions/constantQuantityType"},
                    "minItems": 1
                }
            }
        },
        "stringConformityStatementStatusType": {
            "allOf": [
                {"type": "string"},
                {
                    "enum": [
                        "pass",
                        "fail",
                        "conditionalPass",
                        "conditionalFail",
                        "noPass",
                        "noFail"
                    ]
                }
            ]
        }
    },
    "anyOf": [
        {
            "type": "object",
            "properties": {
                "digitalCalibrationCertificate": {"$ref": "#/definitions/restrictedDigitalCalibrationCertificateType"}
            }
        },
        {
            "type": "object",
            "properties": {
                "constant": {"$ref": "#/definitions/constantQuantityType"}
            }
        },
        {
            "type": "object",
            "properties": {
                "hybrid": {"$ref": "#/definitions/hybridType"}
            }
        },
        {
            "type": "object",
            "properties": {
                "covarianceMatrix": {"$ref": "#/definitions/covarianceMatrixType"}
            }
        },
        {
            "type": "object",
            "properties": {
                "complex": {"$ref": "#/definitions/complexQuantityType"}
            }
        },
        {
            "type": "object",
            "properties": {
                "complexList": {"$ref": "#/definitions/complexListType"}
            }
        },
        {
            "type": "object",
            "properties": {
                "ellipsoidalRegion": {"$ref": "#/definitions/ellipsoidalRegionType"}
            }
        },
        {
            "type": "object",
            "properties": {
                "real": {"$ref": "#/definitions/realQuantityType"}
            }
        },
        {
            "type": "object",
            "properties": {
                "realList": {"$ref": "#/definitions/realListType"}
            }
        },
        {
            "type": "object",
            "properties": {
                "expandedUnc": {"$ref": "#/definitions/expandedUncType"}
            }
        },
        {
            "type": "object",
            "properties": {
                "list": {"$ref": "#/definitions/listType"}
            }
        },
        {
            "type": "object",
            "properties": {
                "rectangularRegion": {"$ref": "#/definitions/rectangularRegionType"}
            }
        },
        {
            "type": "object",
            "properties": {
                "coverageInterval": {"$ref": "#/definitions/coverageIntervalType"}
            }
        },
        {
            "type": "object",
            "properties": {
                "label": {"type": "string"}
            }
        },
        {
            "type": "object",
            "properties": {
                "valueReal": {"type": "number"}
            }
        },
        {
            "type": "object",
            "properties": {
                "valueImag": {"type": "number"}
            }
        },
        {
            "type": "object",
            "properties": {
                "unit": {"type": "string"}
            }
        },
        {
            "type": "object",
            "properties": {
                "valueMagnitude": {"type": "number"}
            }
        },
        {
            "type": "object",
            "properties": {
                "valuePhase": {"type": "number"}
            }
        },
        {
            "type": "object",
            "properties": {
                "unitPhase": {"type": "string"}
            }
        },
        {
            "type": "object",
            "properties": {
                "dateTime": {
                    "type": "string",
                    "format": "date-time"
                }
            }
        },
        {
            "type": "object",
            "properties": {
                "ellipsoidalRegion": {"$ref": "#/definitions/ellipsoidalRegionType"}
            }
        },
        {
            "type": "object",
            "properties": {
                "rectangularRegion": {"$ref": "#/definitions/rectangularRegionType"}
            }
        },
        {
            "type": "object",
            "properties": {
                "label": {"type": "string"}
            }
        },
        {
            "type": "object",
            "properties": {
                "valueReal": {"type": "number"}
            }
        },
        {
            "type": "object",
            "properties": {
                "valueImag": {"type": "number"}
            }
        },
        {
            "type": "object",
            "properties": {
                "unit": {"type": "string"}
            }
        },
        {
            "type": "object",
            "properties": {
                "valueMagnitude": {"type": "number"}
            }
        },
        {
            "type": "object",
            "properties": {
                "valuePhase": {"type": "number"}
            }
        },
        {
            "type": "object",
            "properties": {
                "unitPhase": {"type": "string"}
            }
        },
        {
            "type": "object",
            "properties": {
                "dateTime": {
                    "type": "string",
                    "format": "date-time"
                }
            }
        },
        {
            "type": "object",
            "properties": {
                "ellipsoidalRegion": {"$ref": "#/definitions/ellipsoidalRegionType"}
            }
        },
        {
            "type": "object",
            "properties": {
                "rectangularRegion": {"$ref": "#/definitions/rectangularRegionType"}
            }
        }
    ]
}